{
  "name": "lib_Excel_General",
  "description": "Blank Library",
  "main": "NewActivity.xaml",
  "dependencies": {
    "UiPath.UIAutomation.Activities": "18.3.6877.28298",
    "UiPath.System.Activities": "18.3.6877.28276",
    "UiPath.Mail.Activities": "1.2.6863.29868",
    "UiPath.Excel.Activities": "2.4.6884.25683"
  },
  "schemaVersion": "3.2",
  "studioVersion": "18.3.2.0",
  "projectVersion": "1.0.6918.28646",
  "runtimeOptions": {
    "autoDispose": false,
    "excludedLoggedData": [
      "Private:*",
      "*password*"
    ]
  },
  "projectType": "Library",
  "libraryOptions": {
    "includeOriginalXaml": false,
    "privateWorkflows": []
  },
  "arguments": {
    "input": [],
    "output": []
  }
}