{
  "name": "lib_BusinessLogic",
  "description": "Library for CMD Business Logic",
  "main": "NewActivity.xaml",
  "dependencies": {
    "UiPath.Excel.Activities": "2.4.6884.25683",
    "UiPath.Mail.Activities": "1.2.6863.29868",
    "Microsoft.Activities.Extensions": "2.0.6.9",
    "lib_Excel_General": "1.0.6918.28646",
    "UiPath.System.Activities": "18.4.1",
    "UiPath.UIAutomation.Activities": "18.4.1"
  },
  "schemaVersion": "3.2",
  "studioVersion": "18.4.0.6",
  "projectVersion": "1.0.6919.17527",
  "runtimeOptions": {
    "autoDispose": false,
    "excludedLoggedData": [
      "Private:*",
      "*password*"
    ]
  },
  "projectType": "Library",
  "libraryOptions": {
    "includeOriginalXaml": false,
    "privateWorkflows": []
  },
  "arguments": {
    "input": [],
    "output": []
  }
}