{
  "name": "CMD_CreateTempBusinessPartner",
  "description": "Create temporary business partner or extend existing business partner. Check if high risk customer or low value customer. Launch credit case for high risk customer.",
  "main": "Main.xaml",
  "dependencies": {
    "UiPath.Credentials.Activities": "[1.1.6479.13204]",
    "lib_Orch_General": "[1.0.6905.26511]",
    "lib_General": "[1.0.6905.22590]",
    "lib_Excel_General": "[1.0.6918.28646]",
    "lib_BusinessLogic": "[1.0.6919.19030]",
    "lib_OL_General": "[1.0.6922.19286]",
    "lib_SAP_XD01": "[1.0.6954.23770]",
    "lib_SAP_General": "[1.0.6954.23537]",
    "UiPath.Mail.Activities": "[1.3.0]",
    "lib_SAP_BP": "[1.0.6954.28018]",
    "UiPath.System.Activities": "[19.3.0]",
    "UiPath.UIAutomation.Activities": "[19.3.0]",
    "UiPath.Excel.Activities": "[2.5.2]"
  },
  "schemaVersion": "3.2",
  "studioVersion": "18.4.0.6",
  "projectVersion": "1.0.7045.25067",
  "runtimeOptions": {
    "autoDispose": false,
    "excludedLoggedData": [
      "Private:*",
      "*password*"
    ]
  },
  "projectType": "Workflow",
  "libraryOptions": {
    "includeOriginalXaml": false,
    "privateWorkflows": []
  },
  "arguments": {
    "input": [
      {
        "name": "OrchestratorQueueName",
        "type": "System.String, mscorlib, Version=4.0.0.0, Culture=neutral, PublicKeyToken=b77a5c561934e089",
        "required": false,
        "hasDefault": false
      }
    ],
    "output": []
  }
}