{
  "name": "Framework_CreateCustomer",
  "description": "Create customer. Add Sales Area Data.",
  "main": "Main.xaml",
  "dependencies": {
    "UiPath.UIAutomation.Activities": "[18.3.6897.22543]",
    "UiPath.System.Activities": "[18.3.6897.22524]",
    "UiPath.Excel.Activities": "[2.4.6884.25683]",
    "UiPath.Mail.Activities": "[1.2.6863.29868]",
    "UiPath.Credentials.Activities": "[1.1.6479.13204]",
    "lib_Excel_General": "[1.0.6905.26382]",
    "lib_Orch_General": "[1.0.6905.26511]",
    "lib_General": "[1.0.6905.22590]",
    "lib_SAP_BP": "[1.0.6911.27875]",
    "lib_SAP_XD01": "[1.0.6908.21025]",
    "lib_SAP_General": "[1.0.6912.19863]"
  },
  "schemaVersion": "3.2",
  "studioVersion": "18.4.0.6",
  "projectVersion": "1.0.0.0",
  "runtimeOptions": {
    "autoDispose": false,
    "excludedLoggedData": [
      "Private:*",
      "*password*"
    ]
  },
  "projectType": "Workflow",
  "libraryOptions": {
    "includeOriginalXaml": false,
    "privateWorkflows": []
  }
}