{
  "name": "CMD_Process_ReadEmailLoadQueue",
  "description": "Blank Process",
  "main": "Main.xaml",
  "dependencies": {
    "UiPath.UIAutomation.Activities": "[18.3.6897.22543]",
    "UiPath.System.Activities": "[18.3.6897.22524]",
    "lib_Orch_General": "[1.0.6905.26511]",
    "UiPath.WebAPI.Activities": "[1.2.6863.33980]",
    "lib_BusinessLogic": "[1.0.6913.14215]",
    "lib_OL_General": "[1.0.6913.20878]",
    "lib_Excel_General": "[1.0.6912.28553]"
  },
  "schemaVersion": "3.2",
  "studioVersion": "18.4.0.6",
  "projectVersion": "1.0.6904.30944",
  "runtimeOptions": {
    "autoDispose": false,
    "excludedLoggedData": [
      "Private:*",
      "*password*"
    ]
  },
  "projectType": "Workflow",
  "libraryOptions": {
    "includeOriginalXaml": false,
    "privateWorkflows": []
  },
  "arguments": {
    "input": [],
    "output": []
  }
}