{
  "name": "CMD_Process_ReadEmailLoadQueue",
  "description": "Blank Process",
  "main": "Main.xaml",
  "dependencies": {
    "lib_Orch_General": "[1.0.6905.26511]",
    "lib_BusinessLogic": "[1.0.6919.19030]",
    "lib_Excel_General": "[1.0.6918.28646]",
    "lib_OL_General": "[1.0.6922.19286]"
  },
  "schemaVersion": "3.2",
  "studioVersion": "18.4.0.6",
  "projectVersion": "1.0.6975.14838",
  "runtimeOptions": {
    "autoDispose": false,
    "excludedLoggedData": [
      "Private:*",
      "*password*"
    ]
  },
  "projectType": "Workflow",
  "libraryOptions": {
    "includeOriginalXaml": false,
    "privateWorkflows": []
  },
  "arguments": {
    "input": [],
    "output": []
  }
}